Piecemeal R
…
In the next example, we add new variables to flights using mutate().

flights %>%
  # keep only columns named "dep_delay" and "arr_delay"
  select(dep_delay, arr_delay) %>% 
  mutate(
    gain = arr_delay - dep_delay,
    gain_rank = round(percent_rank(gain), digits = 2)
      # Note: we can immediately use the "gain" variable we just defined. 
  )

## # A tibble: 336,776 × 4
##    dep_delay arr_delay  gain gain_rank
##        <dbl>     <dbl> <dbl>     <dbl>
## 1          2        11     9      0.81
## 2          4        20    16      0.88
## 3          2        33    31      0.94
## 4         -1       -18   -17      0.22
## 5         -6       -25   -19      0.18
## 6         -4        12    16      0.88
## 7         -5        19    24      0.92
## 8         -3       -14   -11      0.37
## 9         -3        -8    -5      0.54
## 10        -2         8    10      0.82
## # ... with 336,766 more rows
…
