Piecemeal R
…
Let’s consider an example of adding new variables using mutate().

flights %>%
  select(dep_delay, arr_delay, air_time) %>% 
    # keep only columns named "dep_delay", "arr_delay", and "air_time" 
  mutate(
    gain = arr_delay - dep_delay,
    gain_per_hr = gain / (air_time / 60)  
      # Note: we can refer to "gain" variable as we define. 
  )

## # A tibble: 336,776 × 5
##    dep_delay arr_delay air_time  gain gain_per_hr
##        <dbl>     <dbl>    <dbl> <dbl>       <dbl>
## 1          2        11      227     9    2.378855
## 2          4        20      227    16    4.229075
## 3          2        33      160    31   11.625000
## 4         -1       -18      183   -17   -5.573770
## 5         -6       -25      116   -19   -9.827586
## 6         -4        12      150    16    6.400000
## 7         -5        19      158    24    9.113924
## 8         -3       -14       53   -11  -12.452830
## 9         -3        -8      140    -5   -2.142857
## 10        -2         8      138    10    4.347826
## # ... with 336,766 more rows
…
